<img src = "../images/roof/karamel_79.jpg" style = "width: 100%; z-index: 0;">
___!!!___
<img src = "../images/roof/nabor_assorty.jpg" style = "width: 100%; z-index: 0;">
___!!!___
<img src = "../images/roof/chudo_zemlya.jpg" style = "width: 100%; z-index: 0;">
___!!!___
<img src = "../images/roof/sam_samolet.jpg" style = "width: 100%; z-index: 0;">
___!!!___
<img src = "../images/roof/deserts_2018.jpg" style = "width: 100%; z-index: 0;">

















